(lp0
(lp1
F121.45545816421509
aF117.24764680862427
aF78.33631587028503
aF129.4526391029358
aI0
aa(lp2
F159.6356019973755
aF28.44402003288269
aF37.16159796714783
aF431.222293138504
aI0
aa(lp3
F28.79397416114807
aF67.16027402877808
aF88.55003595352173
aF86.07853102684021
aI0
aa(lp4
I0
aI0
aI0
aI0
aI0
aa(lp5
I0
aI0
aI0
aI0
aI0
aa(lp6
I0
aI0
aI0
aI0
aI0
aa.